MB242 625434853123735552 1437950263 test
MB243 623985947609317376 1437604817 test
MB246 622944304760094720 1437356470 test
MB253 623181471717593088 1437413015 test
MB260 622965657999556608 1437361561 test
MB260 623000177109004294 1437369791 test
MB260 625326539421278209 1437924439 test
MB262 623207509940023296 1437419223 test
MB267 622918920844906496 1437350418 test
MB278 624236804737118208 1437664626 test
MB287 624359148361089024 1437693795 test
MB298 623039117002051584 1437379075 test
MB305 622970779206946816 1437362782 test
MB331 623133614671269888 1437401605 test
MB339 624408595006902272 1437705584 test
MB344 622938629879394304 1437355117 test
MB353 623163738166792192 1437408787 test
MB353 623168318380179456 1437409879 test
MB377 624683586164289536 1437771147 test
MB383 623184369964814337 1437413706 test
MB401 623129328105164800 1437400583 test
MB401 626195775362629632 1438131681 test
MB419 623034109019820032 1437377881 test
MB434 623285792425779200 1437437887 test
